<svg xmlns="http://www.w3.org/2000/svg" width="21" height="21" viewBox="0 0 21 21">
  <g id="in-love" transform="translate(-0.201 0.032)">
    <circle id="Ellipse_110" data-name="Ellipse 110" cx="10.5" cy="10.5" r="10.5" transform="translate(0.201 -0.032)" fill="#ffd93b"/>
    <path id="Path_601" data-name="Path 601" d="M90.346,165.039c0,2.217-3.349,4.245-3.349,4.245s-3.349-2.028-3.349-4.245a1.714,1.714,0,0,1,3.351-.5,1.711,1.711,0,0,1,3.347.5Z" transform="translate(-80.092 -156.812)" fill="#e24b4b"/>
    <path id="Path_604" data-name="Path 604" d="M286.442,165.039c0,2.217-3.349,4.245-3.349,4.245s-3.349-2.028-3.349-4.245a1.714,1.714,0,0,1,3.351-.5,1.711,1.711,0,0,1,3.347.5Z" transform="translate(-268.621 -156.812)" fill="#e24b4b"/>
    <path id="Path_607" data-name="Path 607" d="M137.525,346.511a6.99,6.99,0,0,1-11.337.007.792.792,0,0,1,.743-1.291,28.293,28.293,0,0,0,9.859-.007A.79.79,0,0,1,137.525,346.511Z" transform="translate(-121.166 -331.445)" fill="#3e4347"/>
    <path id="Path_608" data-name="Path 608" d="M192.456,385.1a6.648,6.648,0,0,0,3.232-.881,1.983,1.983,0,0,0-2.823-1.428c-1.336.713-2.831-.21-3.408,1.546A6.569,6.569,0,0,0,192.456,385.1Z" transform="translate(-181.783 -367.127)" fill="#e24b4b"/>
  </g>
</svg>
