<svg xmlns="http://www.w3.org/2000/svg" xmlns:xlink="http://www.w3.org/1999/xlink" width="200" height="200" viewBox="0 0 200 200">
  <defs>
    <filter id="Ellipse_7" x="0" y="0" width="200" height="200" filterUnits="userSpaceOnUse">
      <feOffset input="SourceAlpha"/>
      <feGaussianBlur stdDeviation="8" result="blur"/>
      <feFlood flood-opacity="0.141"/>
      <feComposite operator="in" in2="blur"/>
      <feComposite in="SourceGraphic"/>
    </filter>
    <filter id="Ellipse_37" x="20" y="20" width="160" height="160" filterUnits="userSpaceOnUse">
      <feOffset input="SourceAlpha"/>
      <feGaussianBlur stdDeviation="8" result="blur-2"/>
      <feFlood flood-opacity="0.141"/>
      <feComposite operator="in" in2="blur-2"/>
      <feComposite in="SourceGraphic"/>
    </filter>
  </defs>
  <g id="icon1" transform="translate(-152 -4785)">
    <g transform="matrix(1, 0, 0, 1, 152, 4785)" filter="url(#Ellipse_7)">
      <g id="Ellipse_7-2" data-name="Ellipse 7" transform="translate(25 25)" fill="#fff" stroke="#2c99cb" stroke-width="1" opacity="0.2">
        <circle cx="75" cy="75" r="75" stroke="none"/>
        <circle cx="75" cy="75" r="75.5" fill="none"/>
      </g>
    </g>
    <g transform="matrix(1, 0, 0, 1, 152, 4785)" filter="url(#Ellipse_37)">
      <g id="Ellipse_37-2" data-name="Ellipse 37" transform="translate(45 45)" fill="#fff" stroke="#2c99cb" stroke-width="1">
        <circle cx="55" cy="55" r="55" stroke="none"/>
        <circle cx="55" cy="55" r="55.5" fill="none"/>
      </g>
    </g>
    <path id="Icon_awesome-concierge-bell" data-name="Icon awesome-concierge-bell" d="M33.023,12.13V10h1.835a1.834,1.834,0,0,0,1.835-1.835V6.335A1.834,1.834,0,0,0,34.858,4.5H23.85a1.834,1.834,0,0,0-1.835,1.835V8.169A1.834,1.834,0,0,0,23.85,10h1.835V12.13A25.669,25.669,0,0,0,3.669,37.523h51.37A25.669,25.669,0,0,0,33.023,12.13Zm23.85,29.063H1.835A1.834,1.834,0,0,0,0,43.027V46.7a1.834,1.834,0,0,0,1.835,1.835H56.874A1.834,1.834,0,0,0,58.708,46.7V43.027A1.834,1.834,0,0,0,56.874,41.193Z" transform="translate(222.736 4858.5)" fill="#2c99cb"/>
  </g>
</svg>
