<svg xmlns="http://www.w3.org/2000/svg" width="43.427" height="40.712" viewBox="0 0 43.427 40.712">
  <path id="Icon_awesome-briefcase-medical" data-name="Icon awesome-briefcase-medical" d="M39.355,10.392H32.57V6.321A4.072,4.072,0,0,0,28.5,2.25H14.928a4.072,4.072,0,0,0-4.071,4.071v4.071H4.071A4.072,4.072,0,0,0,0,14.464V38.891a4.072,4.072,0,0,0,4.071,4.071H39.355a4.072,4.072,0,0,0,4.071-4.071V14.464A4.072,4.072,0,0,0,39.355,10.392ZM16.285,7.678H27.142v2.714H16.285ZM29.856,28.713a.681.681,0,0,1-.679.679h-4.75v4.75a.681.681,0,0,1-.679.679H19.678A.681.681,0,0,1,19,34.141v-4.75h-4.75a.681.681,0,0,1-.679-.679V24.642a.681.681,0,0,1,.679-.679H19v-4.75a.681.681,0,0,1,.679-.679h4.071a.681.681,0,0,1,.679.679v4.75h4.75a.681.681,0,0,1,.679.679Z" transform="translate(0 -2.25)" fill="#fff"/>
</svg>
