<svg xmlns="http://www.w3.org/2000/svg" xmlns:xlink="http://www.w3.org/1999/xlink" width="200" height="200" viewBox="0 0 200 200">
  <defs>
    <filter id="Ellipse_7" x="0" y="0" width="200" height="200" filterUnits="userSpaceOnUse">
      <feOffset input="SourceAlpha"/>
      <feGaussianBlur stdDeviation="8" result="blur"/>
      <feFlood flood-opacity="0.141"/>
      <feComposite operator="in" in2="blur"/>
      <feComposite in="SourceGraphic"/>
    </filter>
    <filter id="Ellipse_37" x="20" y="20" width="160" height="160" filterUnits="userSpaceOnUse">
      <feOffset input="SourceAlpha"/>
      <feGaussianBlur stdDeviation="8" result="blur-2"/>
      <feFlood flood-opacity="0.141"/>
      <feComposite operator="in" in2="blur-2"/>
      <feComposite in="SourceGraphic"/>
    </filter>
  </defs>
  <g id="icon4" transform="translate(-152 -4785)">
    <g transform="matrix(1, 0, 0, 1, 152, 4785)" filter="url(#Ellipse_7)">
      <g id="Ellipse_7-2" data-name="Ellipse 7" transform="translate(25 25)" fill="#fff" stroke="#2c99cb" stroke-width="1" opacity="0.2">
        <circle cx="75" cy="75" r="75" stroke="none"/>
        <circle cx="75" cy="75" r="75.5" fill="none"/>
      </g>
    </g>
    <g transform="matrix(1, 0, 0, 1, 152, 4785)" filter="url(#Ellipse_37)">
      <g id="Ellipse_37-2" data-name="Ellipse 37" transform="translate(45 45)" fill="#fff" stroke="#2c99cb" stroke-width="1">
        <circle cx="55" cy="55" r="55" stroke="none"/>
        <circle cx="55" cy="55" r="55.5" fill="none"/>
      </g>
    </g>
    <path id="Icon_awesome-award" data-name="Icon awesome-award" d="M8.349,31.175c-.747-.747-.358-.536-2.16-1.019A6.2,6.2,0,0,1,4,29.011L.1,38.575A1.376,1.376,0,0,0,1.43,40.468l4.53-.173,3.116,3.291a1.375,1.375,0,0,0,2.272-.426l4.475-10.971a6.169,6.169,0,0,1-7.472-1.014Zm24.56,7.4-3.9-9.563a6.189,6.189,0,0,1-2.186,1.145c-1.811.485-1.414.273-2.16,1.019a6.171,6.171,0,0,1-7.473,1.014L21.664,43.16a1.375,1.375,0,0,0,2.272.426L27.053,40.3l4.53.173a1.376,1.376,0,0,0,1.327-1.894ZM22.61,29.23c1.314-1.337,1.464-1.222,3.335-1.731a3.494,3.494,0,0,0,2.448-2.491c.643-2.442.476-2.147,2.231-3.933a3.566,3.566,0,0,0,.9-3.4c-.642-2.44-.643-2.1,0-4.542a3.566,3.566,0,0,0-.9-3.4c-1.755-1.786-1.588-1.492-2.231-3.933A3.494,3.494,0,0,0,25.945,3.3c-2.4-.654-2.108-.483-3.864-2.27A3.421,3.421,0,0,0,18.737.12c-2.4.653-2.062.654-4.462,0a3.419,3.419,0,0,0-3.343.912C9.177,2.818,9.466,2.648,7.068,3.3A3.494,3.494,0,0,0,4.621,5.794C3.979,8.234,4.145,7.94,2.39,9.727a3.564,3.564,0,0,0-.9,3.4c.642,2.438.643,2.1,0,4.541a3.568,3.568,0,0,0,.9,3.4c1.755,1.786,1.588,1.492,2.231,3.933A3.494,3.494,0,0,0,7.068,27.5c1.924.524,2.068.442,3.334,1.731a3.417,3.417,0,0,0,4.276.5,3.411,3.411,0,0,1,3.656,0A3.416,3.416,0,0,0,22.61,29.23ZM8.4,15.127a8.112,8.112,0,1,1,8.11,8.255A8.184,8.184,0,0,1,8.4,15.127Z" transform="translate(235 4863.001)" fill="#2c99cb"/>
  </g>
</svg>
